{
  "Demo": [{
    "appClass": "全公司公告",
    "appTeller": "王星心",
    "appSubject": "員工手冊內容更新",
    "appObj": "新人類資訊科技",
    "appDate": "2017/8/30 - 2017/12/31"
  }, {
    "appClass": "全公司公告",
    "appTeller": "王星心",
    "appSubject": "2017國慶假日公告",
    "appObj": "新人類資訊科技",
    "appDate": "2017/8/10 - 2017/10/10"
  }, {
    "appClass": "全公司公告",
    "appTeller": "王星心",
    "appSubject": "2017下半年使用自用車津貼基數",
    "appObj": "新人類資訊科技",
    "appDate": "2017/7/3 - 2017/12/31"
  }, {
    "appClass": "全公司公告",
    "appTeller": "陳淑美",
    "appSubject": "新人類的各項售後服務",
    "appObj": "新人類資訊科技",
    "appDate": "2017/6/30 - 2017/9/30"
  }, {
    "appClass": "全公司公告",
    "appTeller": "陳淑美",
    "appSubject": "產品問題及建議",
    "appObj": "新人類資訊科技",
    "appDate": "2017/6/30 - 2017/9/30"
  }, {
    "appClass": "全公司公告",
    "appTeller": "陳淑美",
    "appSubject": "費用申請",
    "appObj": "新人類資訊科技",
    "appDate": "2017/6/5 - 2017/12/31"
  }]
}